[gd_scene load_steps=4 format=2]

[ext_resource path="res://bullet/Bullet.vs" type="Script" id=1]
[ext_resource path="res://bullet/img/bullet.png" type="Texture" id=2]

[sub_resource type="CircleShape2D" id=1]

custom_solver_bias = 0.0
radius = 4.31356

[node name="Bullet" type="Node2D"]

script = ExtResource( 1 )
direction = Vector2( 1, 0 )

[node name="Area2D" type="Area2D" parent="." index="0" groups=[
"bullet",
]]

editor/display_folded = true
input_pickable = true
gravity_vec = Vector2( 0, 1 )
gravity = 98.0
linear_damp = 0.1
angular_damp = 1.0
collision_layer = 2
collision_mask = 2
audio_bus_override = false
audio_bus_name = "Master"
_sections_unfolded = [ "Collision" ]

[node name="CollisionShape2D" type="CollisionShape2D" parent="Area2D" index="0"]

position = Vector2( 0, 0.25 )
shape = SubResource( 1 )
_sections_unfolded = [ "Transform" ]

[node name="Sprite" type="Sprite" parent="." index="1"]

z_index = 2
texture = ExtResource( 2 )
_sections_unfolded = [ "Z Index" ]

[node name="VisibilityNotifier2D" type="VisibilityNotifier2D" parent="." index="2"]

rect = Rect2( -10, -10, 20, 20 )

[connection signal="area_entered" from="Area2D" to="." method="_on_Area2D_area_entered"]

[connection signal="screen_exited" from="VisibilityNotifier2D" to="." method="_on_VisibilityNotifier2D_screen_exited"]


