[gd_scene load_steps=6 format=2]

[ext_resource path="res://powerups/Spring.vs" type="Script" id=1]
[ext_resource path="res://powerups/img/spring.png" type="Texture" id=2]

[sub_resource type="RectangleShape2D" id=1]

custom_solver_bias = 0.0
extents = Vector2( 5, 4 )

[sub_resource type="Animation" id=2]

resource_name = "ready"
length = 0.1
loop = false
step = 0.1
tracks/0/type = "value"
tracks/0/path = NodePath("Sprite:frame")
tracks/0/interp = 1
tracks/0/loop_wrap = true
tracks/0/imported = false
tracks/0/enabled = true
tracks/0/keys = {
"times": PoolRealArray( 0 ),
"transitions": PoolRealArray( 1 ),
"update": 1,
"values": [ 0 ]
}

[sub_resource type="Animation" id=3]

resource_name = "used"
length = 0.1
loop = false
step = 0.1
tracks/0/type = "value"
tracks/0/path = NodePath("Sprite:frame")
tracks/0/interp = 1
tracks/0/loop_wrap = true
tracks/0/imported = false
tracks/0/enabled = true
tracks/0/keys = {
"times": PoolRealArray( 0 ),
"transitions": PoolRealArray( 1 ),
"update": 1,
"values": [ 1 ]
}

[node name="Spring" type="Area2D" groups=[
"spring",
]]

input_pickable = true
gravity_vec = Vector2( 0, 1 )
gravity = 98.0
linear_damp = 0.1
angular_damp = 1.0
collision_layer = 4
collision_mask = 4
audio_bus_override = false
audio_bus_name = "Master"
script = ExtResource( 1 )
_sections_unfolded = [ "Collision" ]

[node name="Sprite" type="Sprite" parent="." index="0"]

texture = ExtResource( 2 )
offset = Vector2( 0, -10 )
hframes = 2
_sections_unfolded = [ "Animation" ]

[node name="CollisionShape2D" type="CollisionShape2D" parent="." index="1"]

position = Vector2( 0, -3 )
shape = SubResource( 1 )
_sections_unfolded = [ "Transform", "Z Index" ]

[node name="AnimationPlayer" type="AnimationPlayer" parent="." index="2"]

root_node = NodePath("..")
autoplay = "ready"
playback_process_mode = 1
playback_default_blend_time = 0.0
playback_speed = 1.0
anims/ready = SubResource( 2 )
anims/used = SubResource( 3 )
blend_times = [  ]

[connection signal="area_entered" from="." to="." method="_on_Spring_area_entered"]


